{
    "indexed": {
        "date-parts": [
            [
                2023,
                4,
                11
            ]
        ],
        "date-time": "2023-04-11T17:14:11Z",
        "timestamp": 1681233251639
    },
    "reference-count": 33,
    "publisher": "American Mathematical Society (AMS)",
    "issue": "1",
    "license": [
        {
            "start": {
                "date-parts": [
                    [
                        2020,
                        7,
                        9
                    ]
                ],
                "date-time": "2020-07-09T00:00:00Z",
                "timestamp": 1594252800000
            },
            "content-version": "am",
            "delay-in-days": 366,
            "URL": "https://www.ams.org/publications/copyright-and-permissions"
        }
    ],
    "funder": [
        {
            "DOI": "10.13039/501100004543",
            "name": "China Scholarship Council",
            "doi-asserted-by": "publisher",
            "award": [
                "11401131"
            ]
        }
    ],
    "content-domain": {
        "domain": [],
        "crossmark-restriction": false
    },
    "short-container-title": [
        "Proc. Amer. Math. Soc."
    ],
    "abstract": "<p>We consider star-shaped, strictly mean convex and closed hypersurfaces expanding by a class of inverse mean curvature flows in <inline-formula content-type=\"math/mathml\">\n<mml:math xmlns:mml=\"http://www.w3.org/1998/Math/MathML\" alttext=\"double-struck upper R Superscript n plus 1\">\n  <mml:semantics>\n    <mml:msup>\n      <mml:mrow class=\"MJX-TeXAtom-ORD\">\n        <mml:mi mathvariant=\"double-struck\">R</mml:mi>\n      </mml:mrow>\n      <mml:mrow class=\"MJX-TeXAtom-ORD\">\n        <mml:mi>n</mml:mi>\n        <mml:mo>+</mml:mo>\n        <mml:mn>1</mml:mn>\n      </mml:mrow>\n    </mml:msup>\n    <mml:annotation encoding=\"application/x-tex\">\\mathbb {R}^{n+1}</mml:annotation>\n  </mml:semantics>\n</mml:math>\n</inline-formula>, and we prove that this evolution exists for all time and the evolving hypersurfaces converge smoothly to a round sphere after rescaling.</p>",
    "DOI": "10.1090/proc/14686",
    "type": "journal-article",
    "created": {
        "date-parts": [
            [
                2019,
                5,
                8
            ]
        ],
        "date-time": "2019-05-08T13:09:10Z",
        "timestamp": 1557320950000
    },
    "page": "379-392",
    "source": "Crossref",
    "is-referenced-by-count": 1,
    "title": [
        "Asymptotic convergence for a class of inverse mean curvature flows in \u211d\u207f\u207a\u00b9"
    ],
    "prefix": "10.1090",
    "volume": "148",
    "author": [
        {
            "given": "Li",
            "family": "Chen",
            "sequence": "first",
            "affiliation": []
        },
        {
            "given": "Jing",
            "family": "Mao",
            "sequence": "additional",
            "affiliation": []
        },
        {
            "given": "Qiang",
            "family": "Tu",
            "sequence": "additional",
            "affiliation": []
        },
        {
            "given": "Di",
            "family": "Wu",
            "sequence": "additional",
            "affiliation": []
        }
    ],
    "member": "14",
    "published-online": {
        "date-parts": [
            [
                2019,
                7,
                9
            ]
        ]
    },
    "reference": [
        {
            "issue": "1",
            "key": "1",
            "doi-asserted-by": "publisher",
            "first-page": "124",
            "DOI": "10.1002/cpa.21556",
            "article-title": "A Minkowski inequality for hypersurfaces in the anti\u2013de Sitter\u2013Schwarzschild manifold",
            "volume": "69",
            "author": "Brendle, Simon",
            "year": "2016",
            "journal-title": "Comm. Pure Appl. Math.",
            "ISSN": "http://id.crossref.org/issn/0010-3640",
            "issn-type": "print"
        },
        {
            "issue": "2",
            "key": "2",
            "doi-asserted-by": "publisher",
            "first-page": "921",
            "DOI": "10.1007/s12220-017-9848-6",
            "article-title": "Non-parametric inverse curvature flows in the AdS-Schwarzschild manifold",
            "volume": "28",
            "author": "Chen, Li",
            "year": "2018",
            "journal-title": "J. Geom. Anal.",
            "ISSN": "http://id.crossref.org/issn/1050-6926",
            "issn-type": "print"
        },
        {
            "issue": "1",
            "key": "3",
            "doi-asserted-by": "publisher",
            "first-page": "27",
            "DOI": "10.1007/s11401-010-0626-z",
            "article-title": "The inverse mean curvature flow in rotationally symmetric spaces",
            "volume": "32",
            "author": "Ding, Qi",
            "year": "2011",
            "journal-title": "Chinese Ann. Math. Ser. B",
            "ISSN": "http://id.crossref.org/issn/0252-9599",
            "issn-type": "print"
        },
        {
            "key": "4",
            "series-title": "Progress in Nonlinear Differential Equations and their Applications",
            "isbn-type": "print",
            "doi-asserted-by": "publisher",
            "DOI": "10.1007/978-0-8176-8210-1",
            "volume-title": "Regularity theory for mean curvature flow",
            "volume": "57",
            "author": "Ecker, Klaus",
            "year": "2004",
            "ISBN": "http://id.crossref.org/isbn/0817632433"
        },
        {
            "issue": "3-4",
            "key": "5",
            "doi-asserted-by": "publisher",
            "first-page": "755",
            "DOI": "10.1007/s00526-014-0732-y",
            "article-title": "A Penrose inequality for graphs over Kottler space",
            "volume": "52",
            "author": "Ge, Yuxin",
            "year": "2015",
            "journal-title": "Calc. Var. Partial Differential Equations",
            "ISSN": "http://id.crossref.org/issn/0944-2669",
            "issn-type": "print"
        },
        {
            "issue": "1-2",
            "key": "6",
            "doi-asserted-by": "publisher",
            "first-page": "257",
            "DOI": "10.1007/s00209-015-1483-y",
            "article-title": "The GBC mass for asymptotically hyperbolic manifolds",
            "volume": "281",
            "author": "Ge, Yuxin",
            "year": "2015",
            "journal-title": "Math. Z.",
            "ISSN": "http://id.crossref.org/issn/0025-5874",
            "issn-type": "print"
        },
        {
            "issue": "2",
            "key": "7",
            "first-page": "237",
            "article-title": "Hyperbolic Alexandrov-Fenchel quermassintegral inequalities II",
            "volume": "98",
            "author": "Ge, Yuxin",
            "year": "2014",
            "journal-title": "J. Differential Geom.",
            "ISSN": "http://id.crossref.org/issn/0022-040X",
            "issn-type": "print"
        },
        {
            "issue": "3",
            "key": "8",
            "first-page": "487",
            "article-title": "Inverse curvature flows in hyperbolic space",
            "volume": "89",
            "author": "Gerhardt, Claus",
            "year": "2011",
            "journal-title": "J. Differential Geom.",
            "ISSN": "http://id.crossref.org/issn/0022-040X",
            "issn-type": "print"
        },
        {
            "issue": "2",
            "key": "9",
            "first-page": "301",
            "article-title": "Curvature flows in the sphere",
            "volume": "100",
            "author": "Gerhardt, Claus",
            "year": "2015",
            "journal-title": "J. Differential Geom.",
            "ISSN": "http://id.crossref.org/issn/0022-040X",
            "issn-type": "print"
        },
        {
            "issue": "1",
            "key": "10",
            "first-page": "299",
            "article-title": "Flow of nonconvex hypersurfaces into spheres",
            "volume": "32",
            "author": "Gerhardt, Claus",
            "year": "1990",
            "journal-title": "J. Differential Geom.",
            "ISSN": "http://id.crossref.org/issn/0022-040X",
            "issn-type": "print"
        },
        {
            "key": "11",
            "series-title": "Series in Geometry and Topology",
            "isbn-type": "print",
            "volume-title": "Curvature problems",
            "volume": "39",
            "author": "Gerhardt, Claus",
            "year": "2006",
            "ISBN": "http://id.crossref.org/isbn/9781571461629"
        },
        {
            "issue": "1-2",
            "key": "12",
            "doi-asserted-by": "publisher",
            "first-page": "471",
            "DOI": "10.1007/s00526-012-0589-x",
            "article-title": "Non-scale-invariant inverse curvature flows in Euclidean space",
            "volume": "49",
            "author": "Gerhardt, Claus",
            "year": "2014",
            "journal-title": "Calc. Var. Partial Differential Equations",
            "ISSN": "http://id.crossref.org/issn/0944-2669",
            "issn-type": "print"
        },
        {
            "issue": "2",
            "key": "13",
            "doi-asserted-by": "publisher",
            "first-page": "325",
            "DOI": "10.1007/s11511-016-0140-6",
            "article-title": "Geometric measures in the dual Brunn-Minkowski theory and their associated Minkowski problems",
            "volume": "216",
            "author": "Huang, Yong",
            "year": "2016",
            "journal-title": "Acta Math.",
            "ISSN": "http://id.crossref.org/issn/0001-5962",
            "issn-type": "print"
        },
        {
            "issue": "20",
            "key": "14",
            "doi-asserted-by": "publisher",
            "first-page": "1045",
            "DOI": "10.1155/S1073792897000664",
            "article-title": "The Riemannian Penrose inequality",
            "author": "Huisken, G.",
            "year": "1997",
            "journal-title": "Internat. Math. Res. Notices",
            "ISSN": "http://id.crossref.org/issn/1073-7928",
            "issn-type": "print"
        },
        {
            "issue": "3",
            "key": "15",
            "first-page": "353",
            "article-title": "The inverse mean curvature flow and the Riemannian Penrose inequality",
            "volume": "59",
            "author": "Huisken, Gerhard",
            "year": "2001",
            "journal-title": "J. Differential Geom.",
            "ISSN": "http://id.crossref.org/issn/0022-040X",
            "issn-type": "print"
        },
        {
            "key": "16",
            "series-title": "Mathematics and its Applications (Soviet Series)",
            "isbn-type": "print",
            "doi-asserted-by": "publisher",
            "DOI": "10.1007/978-94-010-9557-0",
            "volume-title": "Nonlinear elliptic and parabolic equations of the second order",
            "volume": "7",
            "author": "Krylov, N. V.",
            "year": "1987",
            "ISBN": "http://id.crossref.org/isbn/9027722897"
        },
        {
            "issue": "3",
            "key": "17",
            "doi-asserted-by": "publisher",
            "first-page": "Paper No. 62, 21",
            "DOI": "10.1007/s00526-017-1160-6",
            "article-title": "On inverse mean curvature flow in Schwarzschild space and Kottler space",
            "volume": "56",
            "author": "Li, Haizhong",
            "year": "2017",
            "journal-title": "Calc. Var. Partial Differential Equations",
            "ISSN": "http://id.crossref.org/issn/0944-2669",
            "issn-type": "print"
        },
        {
            "issue": "2",
            "key": "18",
            "doi-asserted-by": "publisher",
            "first-page": "243",
            "DOI": "10.1007/s10455-018-9625-1",
            "article-title": "Surfaces expanding by non-concave curvature functions",
            "volume": "55",
            "author": "Li, Haizhong",
            "year": "2019",
            "journal-title": "Ann. Global Anal. Geom.",
            "ISSN": "http://id.crossref.org/issn/0232-704X",
            "issn-type": "print"
        },
        {
            "key": "19",
            "doi-asserted-by": "publisher",
            "first-page": "152",
            "DOI": "10.1016/j.aim.2013.12.003",
            "article-title": "A geometric inequality on hypersurface in hyperbolic space",
            "volume": "253",
            "author": "Li, Haizhong",
            "year": "2014",
            "journal-title": "Adv. Math.",
            "ISSN": "http://id.crossref.org/issn/0001-8708",
            "issn-type": "print"
        },
        {
            "key": "20",
            "unstructured": "Q. R. Li, W. M. Sheng, and X. J. Wang, Asymptotic convergence for a class of fully nonlinear curvature flows, J. Geom. Anal., in press."
        },
        {
            "key": "21",
            "unstructured": "Q. R. Li, W. M. Sheng, and X. J. Wang, Flow by Gauss curvature to the Aleksandrov and dual Minkowski problems, J. Eur. Math. Soc., in press."
        },
        {
            "key": "22",
            "isbn-type": "print",
            "doi-asserted-by": "publisher",
            "volume-title": "Second order parabolic differential equations",
            "author": "Lieberman, Gary M.",
            "year": "1996",
            "DOI": "10.1142/3302",
            "ISBN": "http://id.crossref.org/isbn/981022883X"
        },
        {
            "key": "23",
            "unstructured": "S. Y. Lu, Inverse curvature flow in anti-de sitter-schwarzschild manifold, Commun. Anal. Geom. (to appear), arXiv:1609.09733, 2016."
        },
        {
            "issue": "5",
            "key": "24",
            "doi-asserted-by": "publisher",
            "first-page": "869",
            "DOI": "10.4310/AJM.2016.v20.n5.a2",
            "article-title": "Rigidity results, inverse curvature flows and Alexandrov-Fenchel type inequalities in the sphere",
            "volume": "20",
            "author": "Makowski, Matthias",
            "year": "2016",
            "journal-title": "Asian J. Math.",
            "ISSN": "http://id.crossref.org/issn/1093-6106",
            "issn-type": "print"
        },
        {
            "issue": "1",
            "key": "25",
            "doi-asserted-by": "publisher",
            "first-page": "11",
            "DOI": "10.1515/geofl-2015-0002",
            "article-title": "Gradient estimates for inverse curvature flows in hyperbolic space",
            "volume": "1",
            "author": "Scheuer, Julian",
            "year": "2015",
            "journal-title": "Geom. Flows"
        },
        {
            "issue": "1-2",
            "key": "26",
            "doi-asserted-by": "publisher",
            "first-page": "91",
            "DOI": "10.1007/s00526-014-0742-9",
            "article-title": "Non-scale-invariant inverse curvature flows in hyperbolic space",
            "volume": "53",
            "author": "Scheuer, Julian",
            "year": "2015",
            "journal-title": "Calc. Var. Partial Differential Equations",
            "ISSN": "http://id.crossref.org/issn/0944-2669",
            "issn-type": "print"
        },
        {
            "issue": "3",
            "key": "27",
            "doi-asserted-by": "publisher",
            "first-page": "2265",
            "DOI": "10.1007/s12220-015-9627-1",
            "article-title": "Pinching and asymptotical roundness for inverse curvature flows in Euclidean space",
            "volume": "26",
            "author": "Scheuer, Julian",
            "year": "2016",
            "journal-title": "J. Geom. Anal.",
            "ISSN": "http://id.crossref.org/issn/1050-6926",
            "issn-type": "print"
        },
        {
            "key": "28",
            "doi-asserted-by": "publisher",
            "first-page": "1130",
            "DOI": "10.1016/j.aim.2016.11.003",
            "article-title": "The inverse mean curvature flow in warped cylinders of non-positive radial curvature",
            "volume": "306",
            "author": "Scheuer, Julian",
            "year": "2017",
            "journal-title": "Adv. Math.",
            "ISSN": "http://id.crossref.org/issn/0001-8708",
            "issn-type": "print"
        },
        {
            "issue": "6",
            "key": "29",
            "doi-asserted-by": "publisher",
            "first-page": "591",
            "DOI": "10.1007/s00013-018-1162-4",
            "article-title": "Isotropic functions revisited",
            "volume": "110",
            "author": "Scheuer, Julian",
            "year": "2018",
            "journal-title": "Arch. Math. (Basel)",
            "ISSN": "http://id.crossref.org/issn/0003-889X",
            "issn-type": "print"
        },
        {
            "key": "30",
            "unstructured": "J. Scheuer and X. Chao, Locally constrained inverse curvature flows, preprint, arXiv:1708.06125, 2017."
        },
        {
            "issue": "4",
            "key": "31",
            "doi-asserted-by": "publisher",
            "first-page": "1097",
            "DOI": "10.1016/j.jfa.2018.08.021",
            "article-title": "Inverse curvature flows in Riemannian warped products",
            "volume": "276",
            "author": "Scheuer, Julian",
            "year": "2019",
            "journal-title": "J. Funct. Anal.",
            "ISSN": "http://id.crossref.org/issn/0022-1236",
            "issn-type": "print"
        },
        {
            "issue": "3",
            "key": "32",
            "doi-asserted-by": "publisher",
            "first-page": "355",
            "DOI": "10.1007/BF02571249",
            "article-title": "On the expansion of starshaped hypersurfaces by symmetric functions of their principal curvatures",
            "volume": "205",
            "author": "Urbas, John I. E.",
            "year": "1990",
            "journal-title": "Math. Z.",
            "ISSN": "http://id.crossref.org/issn/0025-5874",
            "issn-type": "print"
        },
        {
            "issue": "2",
            "key": "33",
            "doi-asserted-by": "publisher",
            "first-page": "1749",
            "DOI": "10.1007/s12220-017-9887-z",
            "article-title": "Inverse mean curvature flows in warped product manifolds",
            "volume": "28",
            "author": "Zhou, Hengyu",
            "year": "2018",
            "journal-title": "J. Geom. Anal.",
            "ISSN": "http://id.crossref.org/issn/1050-6926",
            "issn-type": "print"
        }
    ],
    "container-title": [
        "Proceedings of the American Mathematical Society"
    ],
    "language": "en",
    "link": [
        {
            "URL": "https://www.ams.org/proc/2020-148-01/S0002-9939-2019-14686-4/proc14686_AM.pdf",
            "content-type": "application/pdf",
            "content-version": "am",
            "intended-application": "syndication"
        },
        {
            "URL": "http://www.ams.org/proc/2020-148-01/S0002-9939-2019-14686-4/S0002-9939-2019-14686-4.pdf",
            "content-type": "unspecified",
            "content-version": "vor",
            "intended-application": "similarity-checking"
        },
        {
            "URL": "https://www.ams.org/proc/2020-148-01/S0002-9939-2019-14686-4/S0002-9939-2019-14686-4.pdf",
            "content-type": "unspecified",
            "content-version": "vor",
            "intended-application": "similarity-checking"
        }
    ],
    "deposited": {
        "date-parts": [
            [
                2023,
                4,
                11
            ]
        ],
        "date-time": "2023-04-11T16:46:09Z",
        "timestamp": 1681231569000
    },
    "score": 0.0,
    "resource": {
        "primary": {
            "URL": "https://www.ams.org/proc/2020-148-01/S0002-9939-2019-14686-4/"
        }
    },
    "issued": {
        "date-parts": [
            [
                2019,
                7,
                9
            ]
        ]
    },
    "references-count": 33,
    "journal-issue": {
        "issue": "1",
        "published-print": {
            "date-parts": [
                [
                    2020,
                    1
                ]
            ]
        }
    },
    "alternative-id": [
        "S0002-9939-2019-14686-4"
    ],
    "URL": "http://dx.doi.org/10.1090/proc/14686",
    "archive": [
        "CLOCKSS",
        "Portico"
    ],
    "ISSN": [
        "0002-9939",
        "1088-6826"
    ],
    "issn-type": [
        {
            "value": "0002-9939",
            "type": "print"
        },
        {
            "value": "1088-6826",
            "type": "electronic"
        }
    ],
    "subject": [
        "Applied Mathematics",
        "General Mathematics"
    ],
    "published": {
        "date-parts": [
            [
                2019,
                7,
                9
            ]
        ]
    },
    "ml-generated-abstracts": {
        "id": "chatcmpl-7XwDQ26TgFEL4Db6ydqSxTYm081Oj",
        "object": "chat.completion",
        "created": 1688322960,
        "model": "gpt-4-0613",
        "choices": [
            {
                "index": 0,
                "message": {
                    "role": "assistant",
                    "content": "Investigating inverse mean curvature flows in \u211d\u207f\u207a\u00b9, we prove the asymptotic convergence for a particular class under specific conditions. Utilizing a comparative approach, the research demonstrates the intricate behavior patterns of these flows. Significantly, the article highlights these interactions' potential implications for understanding diverse mathematical scenarios. Therefore, it offers a consequential advance in the mathematics field, particularly in differential geometry and geometric analysis."
                },
                "finish_reason": "stop"
            },
            {
                "index": 1,
                "message": {
                    "role": "assistant",
                    "content": "Research focusing on a specific subset of inverse mean curvature flows within \u211d\u207f\u207a\u00b9 is presented. Crucial mechanisms leading to asymptotic convergence are examined meticulously. Building on existing theories, the study interprets complex geometrical characteristics and algebraic structuring in \u211d\u207f\u207a\u00b9. Conclusions shed fresh light on the behaviour and control of curvature flows, providing novel conceptual links and valuable insights for further analysis."
                },
                "finish_reason": "stop"
            },
            {
                "index": 2,
                "message": {
                    "role": "assistant",
                    "content": "Examining a category of inverse mean curvature flows in \u211d\u207f\u207a\u00b9, our research elucidates their asymptotic convergence properties. Utilizing sophisticated mathematical techniques, we uncover new insights into the nature of these flows, including conditions under which convergence is guaranteed. Moreover, we demonstrate potential implications for diverse disciplines such as differential geometry, partial differential equations, and cosmology."
                },
                "finish_reason": "stop"
            }
        ],
        "usage": {
            "prompt_tokens": 97,
            "completion_tokens": 241,
            "total_tokens": 338
        }
    }
}